…
``` r
country_totals = toyimports %>%
  group_by(partner_name) %>%
  summarize(total_dollar_value = sum(US_report_import)) %>%
  arrange(desc(total_dollar_value))

country_totals
```

    ## # A tibble: 129 x 2
    ##    partner_name     total_dollar_value
    ##    <chr>                         <dbl>
    ##  1 China                     26842305.
    ##  2 Denmark                    1034990.
    ##  3 Canada                      572309.
    ##  4 Hong Kong, China            545186.
    ##  5 Switzerland                 400969.
    ##  6 Korea, Rep.                 350612.
    ##  7 Germany                     312891.
    ##  8 Japan                       253160.
    ##  9 Thailand                    226155.
    ## 10 Indonesia                   213807.
    ## # ... with 119 more rows
…
